pid,works on chux,pid number (OBDLink),mode,equation,units,range,notes
1-2 Shift Error,Y,199701,,A / 40,sec,0-7,
1-2 Shift Time,Y,199301,,A / 40,sec,0-7,
2-3 Shift Error,Y,199801,,A / 40,sec,0-7,
2-3 Shift Time,Y,199401,,A / 40,sec,0-7,
3-4 Shift Error,Y,199901,,A / 40,sec,0-7,
3-4 Shift Time,Y,199501,,A / 40,sec,0-7,
ABS Front Left Wheel Speed,N,405101,,,,,
ABS Front Right Wheel Speed,N,405201,,,,,
ABS Rear Left Wheel Speed,N,405401,,,,,
ABS Rear Right Wheel Speed,N,405301,,,,,
AC High Side Pressure,Y,114401,,(A * 1.83) - 15,psi,0-400,
AC Pressure Out of Range,,110001,,(A & 4) / 4,bit,0-1,
AC Relay,,110001,,(A & 2) / 2,bit,0-1,
AC Request,,110001,,A & 1,bit,0-1,
Ambient Light Intensity,,805101,,A * 2,foot-candle,0-510,
Balance Rate Cylinder 1,N,162F01,,,,,Diesel?
Balance Rate Cylinder 2,N,163001,,,,,Diesel?
Balance Rate Cylinder 3,N,163101,,,,,Diesel?
Balance Rate Cylinder 4,N,163201,,,,,Diesel?
Balance Rate Cylinder 5,N,163301,,,,,Diesel?
Balance Rate Cylinder 6,N,163401,,,,,Diesel?
Balance Rate Cylinder 7,N,163501,,,,,Diesel?
Balance Rate Cylinder 8,N,163601,,,,,Diesel?
Barometric Pressure,N,125101,,A,kPa,0-37,
Battery Voltage,N,800001,,A / 10 + 3,volt,3-28.5,
Battery Voltage High Res,N,804901,,((A * 256) + B) / 2000,volt,0-32.768,
Brake Front Left Rotor Temperature,N,400C01,,A * 4,degC,0-1024,
Brake Pedal Switch,N,407501,,A,bit,0-255,decode bits later
Climate Control,,801801,,(A * 256) + B,bit,0-65535,decode bits later
Cruise Control Active,N,195401,,? bit 6,bit,0-1,
Cruise Control Status,N,150C01,,A,bit,0-255,decode bits later
Current Gear,Y,199A01,,A,gear,0-8,
Desired Idle Speed,Y,119201,,A * 12.5,rpm,0-3100,
Driver Door Controls Switch Status,N,808601,,A,bit,0-255,decode bits later
EGR Closed Position,,11BB01,,A / 51,volts,0-255,
EGR Duty Cycle,N,117101,,,,,
EGR Position Error,,11C101,,A / 2.55,%,0-100,
EGR Test,,11BD01,,A,counts,0-255,
EGR Voltage,N,114B01,,A / 51,,,
Engine Cooling Fan Speed,,162B01,,A * 16,rpm,0-4080,
Engine Off Time,,13B501,,((A * 256) + B,sec,0-65535,
Engine Oil Pressure,N,147001,,,,,
Engine Oil Temperature,N,115401,,,,,
Engine Oil Temperature,,153E01,,A - 40,degC,-40-215,
Engine Run Time,Y,11A101,,(A * 256) + B,sec,0-65535,
Exterior Lighting Control Status,,804C01,,(A * 256) + B,bit,0-65535,decode bits later
Fan1 Status,,110001,,(A & 64) / 64,bit,0-1,
Fan2 Status,,110001,,(A & 128) / 128,bit,0-1,
Front HVAC Fan Switch Selection,,816E01,,N,bit,0-65535,16 bits decode later
Fuel Injector Pulse Width Bank 1,,12C301,,((A * 256) + B) * 100 / 6656,msec,0-984.6,
Fuel Injector Pulse Width Bank 2,,12C401,,((A * 256) + B) * 100 / 6656,msec,0-984.6,
Fuel Level Volume,Y,132A01,,((A * 256) + B) / 64,liter,0-1024,
Fuel Tank Level,Y,12C501,,A / 2.55,%,0-100,
Fuel Tank Pressure,Y,114E01,,,volts,0-5,maybe formula from other fuel tank pressure will work?
Fuel Tank Pressure,N,F43201,,,,,
Fuel Tank Vapor Temperature,N,148901,,A - 40,degC,-40-215,
Fuel Total Capacity,Y,131D01,,((A * 256) + B) / 64,liter,0-1024,
H2OS Sensor,Y,114501,,A * 4.34,mV,0-1100,
HO2B1S1 Warm Up Time,,11CA01,,A,sec,0-255,
HO2B1S2 Warm Up Time,,11CB01,,A,sec,0-255,
HO2S1 Crossover,,11AF01,,A,counts,0-255,
HO2S2 Crossover,,11B001,,A,counts,0-255,
Ignition Cycle Counter,N,401601,,(A * 256) + B,counts,0-65535,
Injector Pulse Width Cylinder 1,N,119301,,,,,
Injector Pulse Width Cylinder 2,N,119401,,,,,
Injector Pulse Width Cylinder 3,N,119501,,,,,
Injector Pulse Width Cylinder 4,N,119601,,,,,
Injector Pulse Width Cylinder 5,N,119701,,,,,
Injector Pulse Width Cylinder 6,N,119801,,,,,
Injector Pulse Width Cylinder 7,N,119901,,,,,
Injector Pulse Width Cylinder 8,N,119A01,,,,,
Intake Air Temp,N,153801,,,,,
Interior Dimmer Switch Level,,803E01,,A * 100 / 255,%,0-100,
Knock Counter,Y,125E01,,A,counts,0-255,
Knock Retard,Y,11A601,,A * 0.0878906,deg,0-22.5,
Last Shift Time,Y,199201,,A / 40,sec,0-7,
MAF Frequency,Y,125001,,(A * 256) + B,Hz,0-31999,
MAF Frequency 2,N,12DA01,,(A * 256) + B,Hz,0-65535,
Misfire Count Cylinder 1,Y,120501,,A,counts,0-255,
Misfire Count Cylinder 2,Y,120601,,A,counts,0-255,
Misfire Count Cylinder 3,Y,120701,,A,counts,0-255,
Misfire Count Cylinder 4,Y,120801,,A,counts,0-255,
Misfire Count Cylinder 5,Y,11EA01,,A,counts,0-255,
Misfire Count Cylinder 6,Y,11EB01,,A,counts,0-255,
Misfire Count Cylinder 7,Y,11EC01,,A,counts,0-255,
Misfire Count Cylinder 8,Y,11ED01,,A,counts,0-255,
Misfire History Cyldiner 1,Y,120101,,(A * 256) + B,counts,0-255,
Misfire History Cyldiner 2,Y,120201,,(A * 256) + B,counts,0-255,
Misfire History Cyldiner 3,Y,120301,,(A * 256) + B,counts,0-255,
Misfire History Cyldiner 4,Y,120401,,(A * 256) + B,counts,0-255,
Misfire History Cyldiner 5,Y,11F801,,(A * 256) + B,counts,0-255,
Misfire History Cyldiner 6,Y,11F901,,(A * 256) + B,counts,0-255,
Misfire History Cyldiner 7,Y,11FA01,,(A * 256) + B,counts,0-255,
Misfire History Cyldiner 8,Y,11FB01,,(A * 256) + B,counts,0-255,
Oil Life Remaining,Y,119F01,,A * 0.392157,%,0-100,
Outside Air Temperature,N,116101,,A - 40,degF,0-215,
Outside Air Temperature,N,801E01,,A / 2 - 40,degC,-40-87.5,
Outside Air Temperature Corrected,,801F01,,A / 2 - 40,degC,-40-87.5,
PC Solenoid Actual Current,Y,199E01,,A / 51,amps,0-5,
PC Solenoid Ref Current,Y,199F01,,A / 51,amps,0-5,
Run/Crank Voltage,Y,114101,,A * 0.1,V,0-25.5,
Steering Wheel Angle,,403101,,((A * 256) + B) * 720 / 32768,degC,-720-720,
Steering Wheel Angle 2,,407401,,((A * 256) + B) / 16,degC,-2048-2048,
Throttle at Idle,,110701,,(A & 128) / 128,bit,0-1,
Trans Fluid Temp,Y,194001,,A - 40,degF,0-215,
Trans Input Speed,Y,194101,,((A * 256) + B) / 8,rpm,0-8192,
Trans Oil Remaining Life,?,199001,,A * 100 / 256,%,0-100,
Trans Output Speed,Y,194201,,((A * 256) + B) / 8,rpm,0-8192,
Trans Ratio,,195B01,,((A * 256) + B) / 8192,ratio,0-8,
Trans Slip Speed,Y,199101,,(A * 256 + B) / 8,rpm,0-8200,
Turn Signal Status,N,805901,,A,bit,0-255,"00 = none, 01 = left, 02 = right"
Vehicle Odometer,N,815D01,,((A * 65535) + (B * 4095) + (C * 256) + D) / 64,km,,32 bits?
VTD Fuel Disable,,110601,,A & 1,bit,0-1,
Engine Alcohol Composition,Y,12F301,,A * 100 / 256,%,0-100,
Engine Oil Pressure,,115C01,,(A * 0.065) - 17.5,psi,0-100,
